[TRACE] 2019-11-19 23:01:23.557 Application:10 - This is a trace logger 
[DEBUG] 2019-11-19 23:01:23.560 Application:11 - This is a debug logger 
[INFO ] 2019-11-19 23:01:23.561 Application:12 - This is a info logger 
[WARN ] 2019-11-19 23:01:23.561 Application:13 - This is a string logger 
[ERROR] 2019-11-19 23:01:23.561 Application:14 - This is an error logger 
[FATAL] 2019-11-19 23:01:23.561 Application:15 - This is a fatal logger 
[TRACE] 2019-11-19 23:42:13.142 Application:10 - This is a trace logger 
[DEBUG] 2019-11-19 23:42:13.145 Application:11 - This is a debug logger 
[INFO ] 2019-11-19 23:42:13.145 Application:12 - This is a info logger 
[WARN ] 2019-11-19 23:42:13.145 Application:13 - This is a string logger 
[ERROR] 2019-11-19 23:42:13.151 Application:14 - This is an error logger 
[FATAL] 2019-11-19 23:42:13.151 Application:15 - This is a fatal logger 
[TRACE] 2019-11-19 23:47:04.695 Application:10 - This is a trace logger 
[DEBUG] 2019-11-19 23:47:04.698 Application:11 - This is a debug logger 
[INFO ] 2019-11-19 23:47:04.698 Application:12 - This is a info logger 
[WARN ] 2019-11-19 23:47:04.698 Application:13 - This is a string logger 
[ERROR] 2019-11-19 23:47:04.699 Application:14 - This is an error logger 
[FATAL] 2019-11-19 23:47:04.699 Application:15 - This is a fatal logger 
[WARN ] 2019-11-19 23:53:30.574 Application:13 - This is a string logger 
[ERROR] 2019-11-19 23:53:30.576 Application:14 - This is an error logger 
[FATAL] 2019-11-19 23:53:30.576 Application:15 - This is a fatal logger 
[WARN ] 2019-11-20 00:05:08.588 Application:13 - This is a string logger 
[WARN ] 2019-11-20 00:20:50.759 Application:13 - This is a string logger 
[WARN ] 2019-11-20 00:23:16.407 Application:13 - This is a string logger 
[WARN ] 2019-11-20 00:26:43.531 Application:13 - This is a string logger 
[WARN ] 2019-11-20 00:38:53.062 Application:13 - This is a string logger 
[WARN ] 2019-11-20 00:44:13.672 Application:13 - This is a string logger 
[WARN ] 2019-11-20 01:11:33.480 Application:13 - This is a string logger 
[WARN ] 2019-11-20 01:19:41.152 Application:13 - This is a string logger 
[WARN ] 2019-11-20 01:21:06.523 Application:13 - This is a string logger 
[WARN ] 2019-11-20 01:22:31.488 Application:13 - This is a string logger 
[WARN ] 2019-11-20 01:24:12.028 Application:13 - This is a string logger 
[WARN ] 2019-11-20 01:27:49.734 Application:13 - This is a string logger 
[WARN ] 2019-11-20 01:28:36.826 Application:13 - This is a string logger 
[WARN ] 2019-11-20 01:30:36.532 Application:13 - This is a string logger 
[WARN ] 2019-11-20 12:00:17.895 Application:13 - This is a string logger 
[WARN ] 2019-11-20 12:02:45.741 Application:13 - This is a string logger 
[WARN ] 2019-11-20 12:06:17.261 Application:13 - This is a string logger 
[WARN ] 2019-11-20 12:08:38.030 Application:13 - This is a string logger 
